George Steven Vega - Series de Tiempo
…
'data.frame':   963 obs. of  2 variables:
 $ Fecha    : Date, format: "1943-01-01" "1943-02-01" ...
 $ LogSAP500: num  2.31 2.37 2.4 2.44 2.48 ...

tibble_logSAP500=tibble(df_logSAP500)
tibble_logSAP500%>%timetk::plot_time_series(Fecha, log.SAP500.ts, 
                   .interactive = TRUE,
                   .plotly_slider = TRUE)

tibble_logSAP500%>%mutate(LogSAP500_ajus=smooth_vec(log.SAP500.ts,span = 0.75, degree = 2))

# A tibble: 963 x 3
   Fecha      LogSAP500 LogSAP500_ajus
   <date>         <dbl>          <dbl>
 1 1943-01-01      2.31           2.39
 2 1943-02-01      2.37           2.40
 3 1943-03-01      2.40           2.41
 4 1943-04-01      2.44           2.41
 5 1943-05-01      2.48           2.42
 6 1943-06-01      2.49           2.43
 7 1943-07-01      2.51           2.44
 8 1943-08-01      2.46           2.45
 9 1943-09-01      2.48           2.46
10 1943-10-01      2.47           2.46
# i 953 more rows
…
library(dplyr)
library(parsnip)
library(rsample)
library(timetk)
library(modeltime)
library(tsibble)
library(tidymodels)
###Creación del objeto tibble
lSAP500_tbl<-as_tibble(as_tsibble(log.SAP500.ts))
lSAP500_tbl$index=as.Date(lSAP500_tbl$index)
lSAP500_tbl=rename(lSAP500_tbl,Fecha=index,logSAP500=value)
lSAP500_tbl<-lSAP500_tbl%>%mutate(SAP500=exp(logSAP500))
lSAP500_tbl

# A tibble: 963 x 3
   Fecha      logSAP500 SAP500
   <date>         <dbl>  <dbl>
 1 1943-01-01      2.31   10.1
 2 1943-02-01      2.37   10.7
 3 1943-03-01      2.40   11.1
 4 1943-04-01      2.44   11.5
 5 1943-05-01      2.48   11.9
 6 1943-06-01      2.49   12.1
 7 1943-07-01      2.51   12.4
 8 1943-08-01      2.46   11.7
 9 1943-09-01      2.48   12.0
10 1943-10-01      2.47   11.9
# i 953 more rows
…
pronostico_ets<-modeltime_table(ets_logSAP500) %>%
  modeltime_calibrate(testing(splits_lSAP500_tbl))%>%
  modeltime_forecast(
    new_data = testing(splits_lSAP500_tbl),
    actual_data = lSAP500_tbl
  )
    
 pronostico_ets 

# A tibble: 975 x 7
   .model_id .model_desc .key   .index     .value .conf_lo .conf_hi
       <int> <chr>       <fct>  <date>      <dbl>    <dbl>    <dbl>
 1        NA ACTUAL      actual 1943-01-01   2.31       NA       NA
 2        NA ACTUAL      actual 1943-02-01   2.37       NA       NA
 3        NA ACTUAL      actual 1943-03-01   2.40       NA       NA
 4        NA ACTUAL      actual 1943-04-01   2.44       NA       NA
 5        NA ACTUAL      actual 1943-05-01   2.48       NA       NA
 6        NA ACTUAL      actual 1943-06-01   2.49       NA       NA
 7        NA ACTUAL      actual 1943-07-01   2.51       NA       NA
 8        NA ACTUAL      actual 1943-08-01   2.46       NA       NA
 9        NA ACTUAL      actual 1943-09-01   2.48       NA       NA
10        NA ACTUAL      actual 1943-10-01   2.47       NA       NA
# i 965 more rows

 model_tbl<-modeltime_table(ets_logSAP500)
## Calibración 
  calibration_tbl<-model_tbl%>%
    modeltime_calibrate(testing(splits_lSAP500_tbl))
## Pronóstico sobre el conjunto de prueba
  calibration_tbl%>%
   modeltime_forecast(
    new_data = testing(splits_lSAP500_tbl),
    actual_data = lSAP500_tbl
  ) 

# A tibble: 975 x 7
   .model_id .model_desc .key   .index     .value .conf_lo .conf_hi
       <int> <chr>       <fct>  <date>      <dbl>    <dbl>    <dbl>
 1        NA ACTUAL      actual 1943-01-01   2.31       NA       NA
 2        NA ACTUAL      actual 1943-02-01   2.37       NA       NA
 3        NA ACTUAL      actual 1943-03-01   2.40       NA       NA
 4        NA ACTUAL      actual 1943-04-01   2.44       NA       NA
 5        NA ACTUAL      actual 1943-05-01   2.48       NA       NA
 6        NA ACTUAL      actual 1943-06-01   2.49       NA       NA
 7        NA ACTUAL      actual 1943-07-01   2.51       NA       NA
 8        NA ACTUAL      actual 1943-08-01   2.46       NA       NA
 9        NA ACTUAL      actual 1943-09-01   2.48       NA       NA
10        NA ACTUAL      actual 1943-10-01   2.47       NA       NA
# i 965 more rows
…
